<svg width="28" height="28" viewBox="0 0 28 28" fill="none" xmlns="http://www.w3.org/2000/svg">
<path d="M13.9993 0.666748C6.63935 0.666748 0.666016 6.64008 0.666016 14.0001C0.666016 21.3601 6.63935 27.3334 13.9993 27.3334C21.3594 27.3334 27.3327 21.3601 27.3327 14.0001C27.3327 6.64008 21.3594 0.666748 13.9993 0.666748ZM11.3327 20.6667L4.66602 14.0001L6.54602 12.1201L11.3327 16.8934L21.4527 6.77341L23.3327 8.66675L11.3327 20.6667Z" fill="#52AE5D"/>
</svg>
