<svg width="11" height="10" viewBox="0 0 11 10" fill="none" xmlns="http://www.w3.org/2000/svg">
<path d="M10.0234 1.48047C8.94922 0.582031 7.36719 0.71875 6.37109 1.75391L6 2.14453L5.60938 1.75391C4.80859 0.933594 3.20703 0.425781 1.95703 1.48047C0.726562 2.53516 0.667969 4.41016 1.76172 5.54297L5.55078 9.44922C5.66797 9.56641 5.82422 9.625 5.98047 9.625C6.15625 9.625 6.3125 9.56641 6.42969 9.44922L10.2188 5.54297C11.3125 4.41016 11.2539 2.53516 10.0234 1.48047ZM9.76953 5.11328L6 9.01953L2.21094 5.11328C1.46875 4.33203 1.3125 2.86719 2.36719 1.96875C3.44141 1.05078 4.69141 1.71484 5.16016 2.18359L6 3.04297L6.82031 2.18359C7.26953 1.71484 8.53906 1.05078 9.61328 1.96875C10.668 2.86719 10.5117 4.33203 9.76953 5.11328Z" fill="#9E227B"/>
</svg>
