<svg width="338" height="22" viewBox="0 0 338 22" fill="none" xmlns="http://www.w3.org/2000/svg">
<path d="M309.33 9.14568C307.069 8.63641 304.791 8.19899 304.791 5.98019C304.791 4.10372 306.364 3.04292 308.866 3.04292C311.422 3.04292 312.83 4.5834 313.417 5.21523L315.845 2.9098C315.004 1.89971 312.441 0 308.95 0C303.999 0 301.243 2.65833 301.243 6.2232C301.243 11.2018 305.981 11.8737 308.238 12.402C310.495 12.9303 312.695 13.4269 312.695 15.6415C312.695 17.7588 311.08 18.9126 308.31 18.9126C305.111 18.9126 303.274 16.7361 302.547 15.8486L299.84 18.2428C300.506 18.9971 303.39 21.9999 308.31 21.9999C313.274 21.9999 316.34 19.181 316.34 15.4006C316.34 10.3967 311.592 9.65706 309.33 9.14568Z" fill="white"/>
<path d="M75.8075 12.1378H84.9701V8.9554H75.8075V3.90922H86.4218V0.60849H72.3335V21.4567H86.6796V18.156H75.8075V12.1378Z" fill="white"/>
<path d="M129.284 21.4567H132.828V0.60849H129.284V21.4567Z" fill="white"/>
<path d="M96.7377 0.60849H93.2637V21.4567H105.841V18.156H96.7377V0.60849Z" fill="white"/>
<path d="M114.748 0.60849H111.274V21.4567H123.851V18.156H114.748V0.60849Z" fill="white"/>
<path d="M238.903 9.01668H228.477V0.60849H225.003V21.4567H228.477V12.1991H238.903V21.4567H242.377V0.60849H238.903V9.01668Z" fill="white"/>
<path d="M290.971 13.6423C290.971 16.5247 289.312 18.6336 286.022 18.6336C282.55 18.6336 280.809 16.2901 280.809 13.319L280.819 0.60849H277.202V13.5092C277.202 18.1285 280.278 21.9998 285.747 21.9998C291.06 21.9998 294.576 18.342 294.576 13.4522V0.60849H290.958L290.971 13.6423Z" fill="white"/>
<path d="M189.413 6.63094C189.413 3.35346 186.757 0.60849 182.609 0.60849H174.247V21.4567H177.721V12.6914H180.553L187.247 21.4567H191.622L184.399 12.4569C187.372 11.7469 189.413 9.48791 189.413 6.63094ZM177.721 9.77952V3.67254H182.36C184.431 3.67254 185.781 5.06088 185.781 6.82113C185.781 8.53066 184.498 9.77952 182.535 9.77952H177.721Z" fill="white"/>
<path d="M193.141 3.90922H199.835V21.4567H203.309V3.90922H210.006V0.60849H193.141V3.90922Z" fill="white"/>
<path d="M65.8438 3.95993V0.60849H50.3016V3.90922H61.8499L50.1262 18.099V21.4567H66.0445V18.156H54.1137L65.8438 3.95993Z" fill="white"/>
<path d="M156.723 0.60849L147.819 21.4567H151.476L153.475 16.605H163.302L165.298 21.4567H169.1L160.197 0.60849H156.723ZM154.767 13.4691L158.389 4.56429L162.008 13.4691H154.767Z" fill="white"/>
<path d="M33.9217 0.60849L25.019 21.4567H28.6748L30.6738 16.605H40.4999L42.499 21.4567H46.3005L37.3978 0.60849H33.9217ZM31.9671 13.4691L35.5869 4.56429L39.2088 13.4691H31.9671Z" fill="white"/>
<path d="M326.487 18.156V12.1378H335.647V8.9554H326.487V3.90922H337.101V0.60849H323.013V21.4567H337.357V18.156H326.487Z" fill="white"/>
<path d="M10.6524 13.4899H17.7208C17.3341 16.5328 14.9209 18.6797 11.3793 18.6797C6.82968 18.6797 3.76351 15.2966 3.76351 10.9309C3.76351 6.63061 6.54229 3.38906 10.9693 3.38906C13.9362 3.38906 16.2395 4.83022 17.5032 7.03L20.6285 4.91686C18.7816 2.01129 15.5316 0.0671997 11.3476 0.0671997C4.84544 0.0671997 0 4.77528 0 11.0703C0 17.0167 4.29391 21.9995 11.001 21.9995C16.9326 21.9995 21.3554 17.8873 21.3554 12.391V10.3561H10.6524V13.4899Z" fill="white"/>
<path d="M259.914 0.0677185C253.355 0.0677185 248.641 4.84342 248.641 11.0518C248.641 17.0848 253.074 22 259.733 22C266.292 22 271.006 17.2222 271.006 11.0159C271.006 4.98077 266.571 0.0677185 259.914 0.0677185ZM259.923 18.7373C255.327 18.7373 252.33 15.3225 252.33 10.9124C252.33 6.56985 255.253 3.32829 259.724 3.32829C264.32 3.32829 267.317 6.74524 267.317 11.1554C267.317 15.4979 264.394 18.7373 259.923 18.7373Z" fill="white"/>
</svg>
