<svg width="78" height="49" viewBox="0 0 78 49" fill="none" xmlns="http://www.w3.org/2000/svg">
<path d="M8.2105 24.5L28.2725 4.08332M73.8947 24.5L8.2105 24.5L73.8947 24.5ZM8.2105 24.5L28.2725 44.9167L8.2105 24.5Z" stroke="white" stroke-opacity="0.7" stroke-width="2" stroke-linecap="round"/>
</svg>
